{
	"INFO": {
		"version": "2024.10.07 16:53 ",
		"organization": "FUAS",
		"currentprofile": "sim"
	},
	"IDENTITY": {
		"type": "area",
		"mqserver": "localhost",
		"site": "FUAS",
		"area": "AREA-1",
		"database": "area-1.db",
		"backup": false,
		"data": "own",
		"online": true,
		"sfcu": true,
		"mhu": false
	},
	"PROFILE": {
		"default": {
			"name": "Default profile",
			"description": "AREA-1 dafault configuration",		
			"mqserver": "localhost",
			"database": "area-1.db",
			"backup": false,
			"data": "own",
			"online": true,
			"sfc_active": true,
			"mhc_active": false
		},
		"sim": {
			"name": "Simulation profile.",
			"description": "AREA-1 in simulation mode.",
			"mqserver": "localhost",
			"database": "area-1.db",
			"backup": false,
			"data": "sim",
			"online": true,
			"sfc_active": true,
			"mhc_active": false
		}
	}
}
